…
Now, the setup was done in a way to get all aired episodes, but the website does not currently have S07E01 (apparently they had an incident and still recovering data). We can find it somewhere else of course, however the point is not to analyse GoT in a complete way but to practice data science with R. So I’ll just cut the loop short by only running it until the end of the sixth season. Let’s see what we got:

got <- as.data.frame(all.scripts, stringsAsFactors = FALSE)
counter <- paste0(season, episode)
row.names(got) <- counter[1:60]
colnames(got) <- "text"
as.tibble(got)

## # A tibble: 60 x 1
##                                                                           text
##  *                                                                       <chr>
##  1 "Easy, boy. What do you expect? They're savages. One lot steals a goat from
##  2 "You need to drink, child. And eat. lsn't there anything else? The Dothraki
##  3 "Welcome, Lord Stark. Grand Maester Pycelle has called a meeting of the Sma
##  4 "The little lord's been dreaming again. - We have visitors. - I don't want 
##  5 "Does Ser Hugh have any family in the capital? No. I stood vigil for him my
##  6 "Your pardon, Your Grace. I would rise, but Do you know what your wife has 
##  7 "\"Summoned to court to answer for the crimes \"of your bannerman Gregor Cl
##  8 "Yah! Left high, left low. Right low, lunge right. You break anything, the 
##  9 You've seen better days, my lord. Another visit? lt seems you're my last fr
## 10 "Look at me. Look at me! Do you remember me now, boy, eh? Remember me? Ther
## # ... with 50 more rows
…
